<svg width="50" height="50" viewBox="0 0 50 50" fill="none" xmlns="http://www.w3.org/2000/svg">
<path d="M26.5601 3.90515C25.6555 3.90515 24.7295 4.27485 23.9768 4.93818C23.2242 5.60149 22.6554 6.60544 22.6554 7.80993C22.6554 9.96054 22.3347 11.3722 21.8314 12.3891C21.3282 13.4059 20.6381 14.0702 19.7257 14.7297C18.2355 15.807 16.156 16.8213 14.0617 18.9915V18.7506C14.0617 17.4657 12.9998 16.4023 11.7149 16.4023H2.34291C1.90847 16.4007 1.5561 16.7537 1.55861 17.1881V45.3131C1.56017 45.7446 1.91145 46.093 2.34291 46.0913H11.7149C11.8755 46.0913 12.0328 46.0766 12.1848 46.0441C13.249 45.8241 14.0617 44.8749 14.0617 43.7506V43.6635C15.0546 44.6796 16.437 45.313 17.9664 45.313H32.8117C33.8766 45.3367 33.8766 43.727 32.8117 43.7505H17.9664C15.7888 43.7505 14.0617 42.0173 14.0617 39.8397C14.0617 33.6823 14.0617 27.5248 14.0617 21.3674C16.336 18.4281 18.644 17.4398 20.6367 15.9994C21.6557 15.2628 22.5907 14.3765 23.2322 13.0803C23.8737 11.7842 24.2179 10.1153 24.2179 7.80993C24.2179 7.08571 24.5351 6.53169 25.0083 6.11467C25.4815 5.69765 26.1182 5.4693 26.5601 5.4693C27.8735 5.4693 28.7646 6.06356 29.4318 7.06534C30.0991 8.06715 30.4694 9.49211 30.4694 10.935C30.4694 14.785 28.9466 19.2754 28.9466 19.2754C28.7703 19.7832 29.1476 20.3133 29.6851 20.313H33.6143C33.1181 20.9678 32.8117 21.7719 32.8117 22.6537C32.8117 23.6536 33.2014 24.5588 33.8233 25.2507C32.3273 25.7982 31.2492 27.225 31.2492 28.9068C31.2492 30.5881 32.3264 32.0134 33.8218 32.5612C33.2012 33.2543 32.8117 34.1595 32.8117 35.1582C32.8117 36.8388 33.8883 38.2629 35.3828 38.8113C34.763 39.5027 34.3742 40.4058 34.3742 41.4037C34.3742 43.5543 36.1283 45.313 38.2789 45.313H42.9679C45.1185 45.313 46.8711 43.5543 46.8711 41.4037C46.8711 40.1234 46.2411 38.9929 45.2842 38.2802C46.2411 37.5675 46.8711 36.4386 46.8711 35.1582C46.8711 34.1595 46.4816 33.2543 45.861 32.5612C47.3563 32.0134 48.4336 30.5881 48.4336 28.9068C48.4336 27.225 47.3555 25.7982 45.8595 25.2507C46.4813 24.5588 46.8711 23.6536 46.8711 22.6537C46.8711 20.5032 45.1185 18.7505 42.9679 18.7505H30.7439C31.0362 17.8622 32.0335 14.6904 32.0335 10.935C32.0335 9.23593 31.6259 7.53938 30.7349 6.20163C29.8439 4.86391 28.3887 3.90524 26.5601 3.90524V3.90515ZM3.12264 17.9662H11.7149C12.1612 17.9662 12.4992 18.3041 12.4992 18.7504V43.7504C12.4992 44.1967 12.1612 44.5286 11.7149 44.5286H3.12264V17.9662ZM36.7149 20.3129H40.6257H42.9679C44.2799 20.3129 45.3147 21.3417 45.3147 22.6536C45.3147 23.9656 44.2799 25.002 42.9679 25.002H36.7149C35.403 25.002 34.3742 23.9656 34.3742 22.6536C34.3742 21.3417 35.403 20.3129 36.7149 20.3129ZM27.7 23.4547C27.4148 23.4636 27.1568 23.6263 27.0271 23.8805C25.19 27.3493 22.4286 30.4677 17.9679 30.4677C16.9114 30.4529 16.9114 32.0451 17.9679 32.0301C23.1649 32.0301 26.4409 28.3227 28.4065 24.6114C28.6964 24.0824 28.303 23.4382 27.7 23.4547ZM35.1524 26.5584H44.5304C45.8424 26.5584 46.8711 27.5947 46.8711 28.9067C46.8711 30.2186 45.8424 31.2474 44.5304 31.2474H35.1524C33.8404 31.2474 32.8117 30.2186 32.8117 28.9067C32.8117 27.5947 33.8404 26.5584 35.1524 26.5584ZM36.7149 32.8099H42.9679C44.2799 32.8099 45.3147 33.8463 45.3147 35.1582C45.3147 36.4702 44.2799 37.499 42.9679 37.499H36.7149C35.403 37.499 34.3742 36.4702 34.3742 35.1582C34.3742 33.8463 35.403 32.8099 36.7149 32.8099ZM7.81166 37.499C6.52647 37.499 5.46944 38.5544 5.46944 39.8396C5.46944 41.1248 6.52647 42.1879 7.81166 42.1879C9.09682 42.1879 10.1585 41.1248 10.1585 39.8396C10.1585 38.5544 9.09682 37.499 7.81166 37.499ZM7.81166 39.0614C8.25239 39.0614 8.59597 39.3989 8.59597 39.8396C8.59597 40.2803 8.25239 40.6255 7.81166 40.6255C7.37094 40.6255 7.03194 40.2803 7.03194 39.8396C7.03194 39.3989 7.37094 39.0614 7.81166 39.0614ZM38.2789 39.0614H42.9679C44.2799 39.0614 45.3147 40.0917 45.3147 41.4037C45.3147 42.7156 44.2799 43.7504 42.9679 43.7504H38.2789C36.9669 43.7504 35.9367 42.7156 35.9367 41.4037C35.9367 40.0917 36.9669 39.0614 38.2789 39.0614Z" fill="white"/>
</svg>
